test/lab2_0/simulation/qsim/Lab2_0.msim.vcd
$comment
	File created using the following command:
		vcd file Lab2_0.msim.vcd -direction
$end
$date
	Sat Dec 22 19:34:05 2018
$end
$version
	ModelSim Version 10.1d
$end
$timescale
	1ps
$end
$scope module Lab3_1_vlg_vec_tst $end
$var reg 4 ! A [0:3] $end
$var wire 1 " F [0] $end
$var wire 1 # F [1] $end
$var wire 1 $ F [2] $end
$var wire 1 % sampler $end
$scope module i1 $end
$var wire 1 & gnd $end
$var wire 1 ' vcc $end
$var wire 1 ( unknown $end
$var tri1 1 ) devclrn $end
$var tri1 1 * devpor $end
$var tri1 1 + devoe $end
$var wire 1 , F[2]~output_o $end
$var wire 1 - F[1]~output_o $end
$var wire 1 . F[0]~output_o $end
$var wire 1 / A[3]~input_o $end
$var wire 1 0 A[2]~input_o $end
$var wire 1 1 A[1]~input_o $end
$var wire 1 2 F~0_combout $end
$var wire 1 3 A[0]~input_o $end
$var wire 1 4 F~1_combout $end
$upscope $end
$upscope $end
$enddefinitions $end
#0
$dumpvars
b0 !
0$
0#
0"
x%
0&
1'
x(
1)
1*
1+
0,
0-
0.
0/
00
01
02
03
04
$end
#40000
b1 !
1/
0%
14
1.
1"
#80000
b11 !
b10 !
0/
10
1%
04
12
0.
1-
0"
1#
#120000
b11 !
1/
0%
14
1.
1"
#160000
b111 !
b101 !
b100 !
0/
00
11
1%
04
0.
0"
#200000
b101 !
1/
0%
02
0-
0#
#240000
b111 !
b110 !
0/
10
1%
14
1.
1"
#280000
b111 !
1/
0%
#320000
b1111 !
b1011 !
b1001 !
b1000 !
0/
00
01
13
1%
#360000
b1001 !
1/
0%
#400000
b1011 !
b1010 !
0/
10
1%
12
1-
1#
#440000
b1011 !
1/
0%
#480000
b1111 !
b1101 !
b1100 !
0/
00
11
1%
#520000
b1101 !
1/
0%
02
0-
0#
#560000
b1111 !
b1110 !
0/
10
1%
#600000
b1111 !
1/
0%
#640000
b111 !
b11 !
b1 !
b0 !
0/
00
01
03
1%
04
0.
0"
#680000
b1 !
1/
0%
14
1.
1"
#720000
b11 !
b10 !
0/
10
1%
04
12
0.
1-
0"
1#
#760000
b11 !
1/
0%
14
1.
1"
#800000
b111 !
b101 !
b100 !
0/
00
11
1%
04
0.
0"
#840000
b101 !
1/
0%
02
0-
0#
#880000
b111 !
b110 !
0/
10
1%
14
1.
1"
#920000
b111 !
1/
0%
#960000
b11 !
b1 !
b0 !
0/
00
01
1%
04
0.
0"
