simulation/qsim/8-bit-cpu.msim.vcd
$comment
	File created using the following command:
		vcd file 8-bit-cpu.msim.vcd -direction
$end
$date
	Sun Jan 06 19:53:27 2019
$end
$version
	ModelSim Version 10.1d
$end
$timescale
	1ps
$end
$scope module RAM_test_vlg_vec_tst $end
$var reg 8 ! add [7:0] $end
$var reg 1 " CLK $end
$var reg 8 # data [7:0] $end
$var reg 1 $ WE $end
$var wire 1 % q [7] $end
$var wire 1 & q [6] $end
$var wire 1 ' q [5] $end
$var wire 1 ( q [4] $end
$var wire 1 ) q [3] $end
$var wire 1 * q [2] $end
$var wire 1 + q [1] $end
$var wire 1 , q [0] $end
$var wire 1 - sampler $end
$scope module i1 $end
$var wire 1 . gnd $end
$var wire 1 / vcc $end
$var wire 1 0 unknown $end
$var tri1 1 1 devclrn $end
$var tri1 1 2 devpor $end
$var tri1 1 3 devoe $end
$var wire 1 4 q[7]~output_o $end
$var wire 1 5 q[6]~output_o $end
$var wire 1 6 q[5]~output_o $end
$var wire 1 7 q[4]~output_o $end
$var wire 1 8 q[3]~output_o $end
$var wire 1 9 q[2]~output_o $end
$var wire 1 : q[1]~output_o $end
$var wire 1 ; q[0]~output_o $end
$var wire 1 < WE~input_o $end
$var wire 1 = CLK~input_o $end
$var wire 1 > CLK~inputclkctrl_outclk $end
$var wire 1 ? data[0]~input_o $end
$var wire 1 @ add[0]~input_o $end
$var wire 1 A add[1]~input_o $end
$var wire 1 B add[2]~input_o $end
$var wire 1 C add[3]~input_o $end
$var wire 1 D add[4]~input_o $end
$var wire 1 E add[5]~input_o $end
$var wire 1 F add[6]~input_o $end
$var wire 1 G add[7]~input_o $end
$var wire 1 H data[1]~input_o $end
$var wire 1 I data[2]~input_o $end
$var wire 1 J data[3]~input_o $end
$var wire 1 K data[4]~input_o $end
$var wire 1 L data[5]~input_o $end
$var wire 1 M data[6]~input_o $end
$var wire 1 N data[7]~input_o $end
$var wire 1 O inst|altsyncram_component|auto_generated|q_a [7] $end
$var wire 1 P inst|altsyncram_component|auto_generated|q_a [6] $end
$var wire 1 Q inst|altsyncram_component|auto_generated|q_a [5] $end
$var wire 1 R inst|altsyncram_component|auto_generated|q_a [4] $end
$var wire 1 S inst|altsyncram_component|auto_generated|q_a [3] $end
$var wire 1 T inst|altsyncram_component|auto_generated|q_a [2] $end
$var wire 1 U inst|altsyncram_component|auto_generated|q_a [1] $end
$var wire 1 V inst|altsyncram_component|auto_generated|q_a [0] $end
$var wire 1 W inst|altsyncram_component|auto_generated|ram_block1a0_PORTADATAOUT_bus [17] $end
$var wire 1 X inst|altsyncram_component|auto_generated|ram_block1a0_PORTADATAOUT_bus [16] $end
$var wire 1 Y inst|altsyncram_component|auto_generated|ram_block1a0_PORTADATAOUT_bus [15] $end
$var wire 1 Z inst|altsyncram_component|auto_generated|ram_block1a0_PORTADATAOUT_bus [14] $end
$var wire 1 [ inst|altsyncram_component|auto_generated|ram_block1a0_PORTADATAOUT_bus [13] $end
$var wire 1 \ inst|altsyncram_component|auto_generated|ram_block1a0_PORTADATAOUT_bus [12] $end
$var wire 1 ] inst|altsyncram_component|auto_generated|ram_block1a0_PORTADATAOUT_bus [11] $end
$var wire 1 ^ inst|altsyncram_component|auto_generated|ram_block1a0_PORTADATAOUT_bus [10] $end
$var wire 1 _ inst|altsyncram_component|auto_generated|ram_block1a0_PORTADATAOUT_bus [9] $end
$var wire 1 ` inst|altsyncram_component|auto_generated|ram_block1a0_PORTADATAOUT_bus [8] $end
$var wire 1 a inst|altsyncram_component|auto_generated|ram_block1a0_PORTADATAOUT_bus [7] $end
$var wire 1 b inst|altsyncram_component|auto_generated|ram_block1a0_PORTADATAOUT_bus [6] $end
$var wire 1 c inst|altsyncram_component|auto_generated|ram_block1a0_PORTADATAOUT_bus [5] $end
$var wire 1 d inst|altsyncram_component|auto_generated|ram_block1a0_PORTADATAOUT_bus [4] $end
$var wire 1 e inst|altsyncram_component|auto_generated|ram_block1a0_PORTADATAOUT_bus [3] $end
$var wire 1 f inst|altsyncram_component|auto_generated|ram_block1a0_PORTADATAOUT_bus [2] $end
$var wire 1 g inst|altsyncram_component|auto_generated|ram_block1a0_PORTADATAOUT_bus [1] $end
$var wire 1 h inst|altsyncram_component|auto_generated|ram_block1a0_PORTADATAOUT_bus [0] $end
$upscope $end
$upscope $end
$enddefinitions $end
#0
$dumpvars
b0 !
0"
b0 #
0$
0,
0+
0*
0)
0(
0'
0&
0%
x-
0.
1/
x0
11
12
13
04
05
06
07
08
09
0:
0;
0<
0=
0>
0?
0@
0A
0B
0C
0D
0E
0F
0G
0H
0I
0J
0K
0L
0M
0N
0V
0U
0T
0S
0R
0Q
0P
0O
0h
0g
0f
0e
0d
0c
0b
0a
0`
0_
0^
0]
0\
0[
0Z
0Y
0X
0W
$end
#20000
b1 !
1@
0-
#40000
b11 !
b100000 #
b100010 #
b10 !
1H
1L
0@
1A
1-
#50000
1"
1=
1>
0-
#50001
1h
1V
1;
1,
#60000
b10 #
b0 #
b11 !
1@
0H
0L
1-
#80000
b111 !
b101 !
b100 !
0@
0A
1B
0-
#100000
b101 !
1@
1-
#120000
b111 !
b110 !
0@
1A
0-
#140000
b111 !
1@
1-
#150000
0"
0=
0>
0-
#160000
b1111 !
b1011 !
b1001 !
b1000 !
0@
0A
0B
1C
1-
#180000
b1001 !
1@
0-
#200000
b1011 !
b1010 !
0@
1A
1-
#220000
b1011 !
1@
0-
#240000
b10001011 !
b11001011 !
b11101011 !
b11111011 !
1$
b100000 #
b100010 #
b11111111 !
1<
1H
1L
1B
1D
1E
1F
1G
1-
#250000
1"
1=
1>
0-
#250001
0h
1g
1c
0V
1U
1Q
0;
1:
16
0,
1+
1'
#260000
b11111101 !
b1111101 !
b111101 !
b11101 !
b1101 !
0$
b10 #
b0 #
0"
0<
0H
0L
0A
0D
0E
0F
0G
0=
0>
1-
#280000
b1100 !
b1110 !
0@
1A
0-
#300000
b1111 !
1@
1-
#320000
b111 !
b11 !
b10011 !
b10001 !
b10000 !
0@
0A
0B
0C
1D
0-
#340000
b10001 !
1@
1-
#360000
b10011 !
b10010 !
0@
1A
0-
#380000
b10011 !
1@
1-
#400000
b10111 !
b10101 !
b10100 !
0@
0A
1B
0-
#420000
b10101 !
1@
1-
#440000
b10111 !
b10110 !
0@
1A
0-
#460000
b10111 !
1@
1-
#480000
b11111 !
b11011 !
b11001 !
b11000 !
0@
0A
0B
1C
0-
#500000
b11001 !
1@
1-
#520000
b11011 !
b11010 !
0@
1A
0-
#540000
b11011 !
1@
1-
#560000
b11111 !
b11101 !
b11100 !
0@
0A
1B
0-
#580000
b11101 !
1@
1-
#600000
b11111 !
b11110 !
0@
1A
0-
#620000
b11111 !
1@
1-
#640000
b111111 !
b101111 !
b100111 !
b100011 !
b100001 !
b100000 !
0@
0A
0B
0C
0D
1E
0-
#660000
b100001 !
1@
1-
#680000
b100011 !
b100010 !
0@
1A
0-
#700000
b100011 !
1@
1-
#720000
b100111 !
b100101 !
b100100 !
0@
0A
1B
0-
#740000
b100101 !
1@
1-
#760000
b100111 !
b100110 !
0@
1A
0-
#780000
b100111 !
1@
1-
#800000
b101111 !
b101011 !
b101001 !
b101000 !
0@
0A
0B
1C
0-
#820000
b101001 !
1@
1-
#840000
b101011 !
b101010 !
0@
1A
0-
#860000
b101011 !
1@
1-
#880000
b101111 !
b101101 !
b101100 !
0@
0A
1B
0-
#900000
b101101 !
1@
1-
#920000
b101111 !
b101110 !
0@
1A
0-
#940000
b101111 !
1@
1-
#960000
b111111 !
b110111 !
b110011 !
b110001 !
b110000 !
0@
0A
0B
0C
1D
0-
#980000
b110001 !
1@
1-
